psychological network visualization using qgraph practice
…
In the field of psychometric, the relations between latent variable and manifest variable are researched, and a method to visualize the result is useful. Visualizing latent, manifest variable into a network structure is especially useful. One example may be the big five personality trait and how the traits correlate, another example may be networks of psychopathological symptoms and how it interacts. Both in the US and Europe(especially in the Netherlands), quantitative psychology is actively researched. Rigorous theoretical study regarding latent/manifest network structure will be valuable for future studies within quantitative psychology as well as applications to other fields, where research regarding multiple variables and their dynamic interaction is performed.

This page serves as personal practice of visiualizing psychological network using qgraph. The package heavily used is qgraph, and the methods are heavily borrowed from the package page and the tutorial paper by Jones, Mair, McNally. Additional reference was added which is from the maintainer and the department of psychological method from Univerisity of Amsterdam.

Setup

# Load data
library(MPsychoR)
data(Rogers) ; data(Rogers_Adolescent)
library(tidyverse)
Rogers <- as_tibble(Rogers) ; Rogers_Adolescent <- as_tibble(Rogers_Adolescent)
Rogers

## # A tibble: 408 x 26
##    onset middle  late hypersom   sad decappetite incappetite weightloss
##    <int>  <int> <int>    <int> <int>       <int>       <int>      <int>
##  1     0      2     0        1     2           0           0          0
##  2     3      2     0        0     1           0           0          0
##  3     2      1     2        0     2           0           0          0
##  4     0      3     1        2     2           0           0          0
##  5     0      2     1        1     1           0           0          0
##  6     1      1     1        2     2           2           3          2
##  7     1      0     0        1     2           0           0          0
##  8     3      2     2        0     1           1           0          1
##  9     2      0     0        2     2           2           2          2
## 10     2      3     3        0     3           1           0          0
## # ... with 398 more rows, and 18 more variables: weightgain <int>,
## #   concen <int>, guilt <int>, suicide <int>, anhedonia <int>,
## #   fatigue <int>, retard <int>, agitation <int>, obtime <int>,
## #   obinterfer <int>, obdistress <int>, obresist <int>, obcontrol <int>,
## #   comptime <int>, compinterf <int>, compdis <int>, compresis <int>,
## #   compcont <int>

Rogers_Adolescent

## # A tibble: 87 x 26
##    onset middle  late hypersom   sad decappetite incappetite weightloss
##    <int>  <int> <int>    <int> <int>       <int>       <int>      <int>
##  1     1      0     0        2     1           0           0          0
##  2     3      2     0        1     1           0           0          0
##  3     1      2     0        0     1           1           1          1
##  4     0      0     1        3     0           0           0          0
##  5     3      3     1        0     2           0           1          0
##  6     1      0     0        0     0           0           0          0
##  7     2      0     0        1     1           1           0          0
##  8     1      1     0        0     3           0           0          0
##  9     1      2     2        1     3           1           0          1
## 10     1      3     2        1     2           0           0          0
## # ... with 77 more rows, and 18 more variables: weightgain <int>,
## #   concen <int>, guilt <int>, suicide <int>, anhedonia <int>,
## #   fatigue <int>, retard <int>, agitation <int>, obtime <int>,
## #   obinterfer <int>, obdistress <int>, obresist <int>, obcontrol <int>,
## #   comptime <int>, compinterf <int>, compdis <int>, compresis <int>,
## #   compcont <int>
…
